('E:\\cgcytool\\maya\\scripts\\BatchModificationPath\\build\\main\\PKG-00.pkg',
 {'BINARY': 1,
  'DATA': 1,
  'EXECUTABLE': 1,
  'EXTENSION': 1,
  'PYMODULE': 1,
  'PYSOURCE': 1,
  'PYZ': 0},
 [('PYZ-00.pyz',
   'E:\\cgcytool\\maya\\scripts\\BatchModificationPath\\build\\main\\PYZ-00.pyz',
   'PYZ'),
  ('struct',
   'c:\\users\\liexing\\appdata\\local\\programs\\python\\python38-32\\lib\\struct.pyo',
   'PYMODULE'),
  ('pyimod01_os_path',
   'c:\\users\\liexing\\appdata\\local\\programs\\python\\python38-32\\lib\\site-packages\\PyInstaller\\loader\\pyimod01_os_path.pyc',
   'PYMODULE'),
  ('pyimod02_archive',
   'c:\\users\\liexing\\appdata\\local\\programs\\python\\python38-32\\lib\\site-packages\\PyInstaller\\loader\\pyimod02_archive.pyc',
   'PYMODULE'),
  ('pyimod03_importers',
   'c:\\users\\liexing\\appdata\\local\\programs\\python\\python38-32\\lib\\site-packages\\PyInstaller\\loader\\pyimod03_importers.pyc',
   'PYMODULE'),
  ('pyiboot01_bootstrap',
   'c:\\users\\liexing\\appdata\\local\\programs\\python\\python38-32\\lib\\site-packages\\PyInstaller\\loader\\pyiboot01_bootstrap.py',
   'PYSOURCE'),
  ('pyi_rth_pyqt5',
   'C:\\Users\\liexing\\AppData\\Local\\Programs\\Python\\Python38-32\\Lib\\site-packages\\PyInstaller\\loader\\rthooks\\pyi_rth_pyqt5.py',
   'PYSOURCE'),
  ('pyi_rth__tkinter',
   'C:\\Users\\liexing\\AppData\\Local\\Programs\\Python\\Python38-32\\Lib\\site-packages\\PyInstaller\\loader\\rthooks\\pyi_rth__tkinter.py',
   'PYSOURCE'),
  ('pyi_rth_multiprocessing',
   'C:\\Users\\liexing\\AppData\\Local\\Programs\\Python\\Python38-32\\Lib\\site-packages\\PyInstaller\\loader\\rthooks\\pyi_rth_multiprocessing.py',
   'PYSOURCE'),
  ('pyi_rth_pyside2',
   'C:\\Users\\liexing\\AppData\\Local\\Programs\\Python\\Python38-32\\Lib\\site-packages\\PyInstaller\\loader\\rthooks\\pyi_rth_pyside2.py',
   'PYSOURCE'),
  ('main',
   'E:\\cgcytool\\maya\\scripts\\BatchModificationPath\\main.py',
   'PYSOURCE'),
  ('main.exe.manifest',
   'E:\\cgcytool\\maya\\scripts\\BatchModificationPath\\build\\main\\main.exe.manifest',
   'BINARY')],
 True,
 False,
 False,
 [])
